{
  "common": {
    "protocole": "https://",
    "logPath": "on/demandware.servlet/webdav/Sites/Logs/",
    "user": "user",
    "pass": "pass"
  },
  "sites": [
    {
      "id": "lacfr",
      "name": "Lacoste FR -> Fabien",
      "host": "dev05-store-lacoste.demandware.net/",
      "user": "user",
      "pass": "pass"
    },
    {
      "id": "lacdemo",
      "name": "Lacoste demo",
      "host": "demo-store-lacoste.demandware.net/"
    }
  ]
}